PWD /home/server/hscmathspapergenerator/papers
INPUT /etc/texmf/web2c/texmf.cnf
INPUT /usr/share/texmf/web2c/texmf.cnf
INPUT /usr/share/texlive/texmf-dist/web2c/texmf.cnf
INPUT /var/lib/texmf/web2c/pdftex/pdflatex.fmt
INPUT /home/server/hscmathspapergenerator/papers/2006-mx2.tex
OUTPUT 2006-mx2.log
INPUT /usr/share/texlive/texmf-dist/tex/latex/base/article.cls
INPUT /usr/share/texlive/texmf-dist/tex/latex/base/article.cls
INPUT /usr/share/texlive/texmf-dist/tex/latex/base/size10.clo
INPUT /usr/share/texlive/texmf-dist/tex/latex/base/size10.clo
INPUT /home/server/texmf/tex/pythontex.sty
INPUT /home/server/texmf/tex/pythontex.sty
INPUT /home/server/texmf/tex/latex/fvextra/fvextra.sty
INPUT /home/server/texmf/tex/latex/fvextra/fvextra.sty
INPUT /usr/share/texlive/texmf-dist/tex/latex/base/ifthen.sty
INPUT /usr/share/texlive/texmf-dist/tex/latex/base/ifthen.sty
INPUT /usr/share/texlive/texmf-dist/tex/latex/etoolbox/etoolbox.sty
INPUT /usr/share/texlive/texmf-dist/tex/latex/etoolbox/etoolbox.sty
INPUT /usr/share/texlive/texmf-dist/tex/latex/fancyvrb/fancyvrb.sty
INPUT /usr/share/texlive/texmf-dist/tex/latex/fancyvrb/fancyvrb.sty
INPUT /usr/share/texlive/texmf-dist/tex/latex/graphics/keyval.sty
INPUT /usr/share/texlive/texmf-dist/tex/latex/graphics/keyval.sty
INPUT /home/server/texmf/tex/latex/upquote/upquote.sty
INPUT /home/server/texmf/tex/latex/upquote/upquote.sty
INPUT /usr/share/texlive/texmf-dist/tex/latex/lineno/lineno.sty
INPUT /usr/share/texlive/texmf-dist/tex/latex/lineno/lineno.sty
INPUT /home/server/texmf/tex/generic/xstring/xstring.sty
INPUT /home/server/texmf/tex/generic/xstring/xstring.sty
INPUT /home/server/texmf/tex/generic/xstring/xstring.tex
INPUT /home/server/texmf/tex/latex/pgfopts/pgfopts.sty
INPUT /home/server/texmf/tex/latex/pgfopts/pgfopts.sty
INPUT /home/server/texmf/tex/latex/pgf/utilities/pgfkeys.sty
INPUT /home/server/texmf/tex/latex/pgf/utilities/pgfkeys.sty
INPUT /home/server/texmf/tex/generic/pgf/utilities/pgfkeys.code.tex
INPUT /home/server/texmf/tex/generic/pgf/utilities/pgfkeys.code.tex
INPUT /home/server/texmf/tex/generic/pgf/utilities/pgfkeysfiltered.code.tex
INPUT /usr/share/texlive/texmf-dist/tex/latex/caption/newfloat.sty
INPUT /usr/share/texlive/texmf-dist/tex/latex/caption/newfloat.sty
INPUT /home/server/texmf/tex/latex/currfile/currfile.sty
INPUT /home/server/texmf/tex/latex/currfile/currfile.sty
INPUT /usr/share/texlive/texmf-dist/tex/latex/oberdiek/kvoptions.sty
INPUT /usr/share/texlive/texmf-dist/tex/latex/oberdiek/kvoptions.sty
INPUT /usr/share/texlive/texmf-dist/tex/generic/oberdiek/ltxcmds.sty
INPUT /usr/share/texlive/texmf-dist/tex/generic/oberdiek/ltxcmds.sty
INPUT /usr/share/texlive/texmf-dist/tex/generic/oberdiek/kvsetkeys.sty
INPUT /usr/share/texlive/texmf-dist/tex/generic/oberdiek/kvsetkeys.sty
INPUT /usr/share/texlive/texmf-dist/tex/generic/oberdiek/infwarerr.sty
INPUT /usr/share/texlive/texmf-dist/tex/generic/oberdiek/infwarerr.sty
INPUT /usr/share/texlive/texmf-dist/tex/generic/oberdiek/etexcmds.sty
INPUT /usr/share/texlive/texmf-dist/tex/generic/oberdiek/etexcmds.sty
INPUT /usr/share/texlive/texmf-dist/tex/generic/oberdiek/ifluatex.sty
INPUT /usr/share/texlive/texmf-dist/tex/generic/oberdiek/ifluatex.sty
INPUT /usr/share/texlive/texmf-dist/tex/latex/filehook/filehook.sty
INPUT /usr/share/texlive/texmf-dist/tex/latex/filehook/filehook.sty
OUTPUT 2006-mx2.pytxcode
INPUT /usr/share/texlive/texmf-dist/tex/latex/xcolor/xcolor.sty
INPUT /usr/share/texlive/texmf-dist/tex/latex/xcolor/xcolor.sty
INPUT /usr/share/texlive/texmf-dist/tex/latex/graphics-cfg/color.cfg
INPUT /usr/share/texlive/texmf-dist/tex/latex/graphics-cfg/color.cfg
INPUT /usr/share/texlive/texmf-dist/tex/latex/graphics-def/pdftex.def
INPUT /usr/share/texlive/texmf-dist/tex/latex/graphics-def/pdftex.def
INPUT 2006-mx2.aux
INPUT 2006-mx2.aux
OUTPUT 2006-mx2.aux
INPUT /usr/share/texlive/texmf-dist/tex/context/base/mkii/supp-pdf.mkii
INPUT /usr/share/texlive/texmf-dist/tex/context/base/mkii/supp-pdf.mkii
OUTPUT 2006-mx2.pdf
INPUT /var/lib/texmf/fonts/map/pdftex/updmap/pdftex.map
INPUT 2006-mx2.aux
INPUT /usr/share/texlive/texmf-dist/fonts/type1/public/amsfonts/cm/cmr10.pfb
