# Fdb version 3
["pdflatex"] 1556785010 "/home/server/hscmathspapergenerator/papers/long_integration_proof.tex" "long_integration_proof.pdf" "long_integration_proof" 1556785012
  "/etc/texmf/web2c/texmf.cnf" 1553585684 475 c0e671620eb5563b2130f56340a5fde8 ""
  "/home/server/hscmathspapergenerator/papers/long_integration_proof.tex" 1556785008 1374 3c03d9bdfec83e5eeacb4953a039ff24 ""
  "/usr/share/texlive/texmf-dist/fonts/type1/public/amsfonts/cm/cmex10.pfb" 1480098733 30251 6afa5cb1d0204815a708a080681d4674 ""
  "/usr/share/texlive/texmf-dist/fonts/type1/public/amsfonts/cm/cmmi10.pfb" 1480098733 36299 5f9df58c2139e7edcf37c8fca4bd384d ""
  "/usr/share/texlive/texmf-dist/fonts/type1/public/amsfonts/cm/cmmi7.pfb" 1480098733 36281 c355509802a035cadc5f15869451dcee ""
  "/usr/share/texlive/texmf-dist/fonts/type1/public/amsfonts/cm/cmr10.pfb" 1480098733 35752 024fb6c41858982481f6968b5fc26508 ""
  "/usr/share/texlive/texmf-dist/fonts/type1/public/amsfonts/cm/cmr5.pfb" 1480098733 31809 8670ca339bf94e56da1fc21c80635e2a ""
  "/usr/share/texlive/texmf-dist/fonts/type1/public/amsfonts/cm/cmr7.pfb" 1480098733 32762 224316ccc9ad3ca0423a14971cfa7fc1 ""
  "/usr/share/texlive/texmf-dist/fonts/type1/public/amsfonts/cm/cmsy10.pfb" 1480098733 32569 5e5ddc8df908dea60932f3c484a54c0d ""
  "/usr/share/texlive/texmf-dist/fonts/type1/public/amsfonts/cm/cmsy7.pfb" 1480098733 32716 08e384dc442464e7285e891af9f45947 ""
  "/usr/share/texlive/texmf-dist/tex/latex/base/article.cls" 1480098821 19821 310da678527a7dfe2a02c88af38079b7 ""
  "/usr/share/texlive/texmf-dist/tex/latex/base/size10.clo" 1480098821 8292 e897c12e1e886ce77fe26afc5d470886 ""
  "/usr/share/texlive/texmf-dist/web2c/texmf.cnf" 1520210507 32485 c64754543d8ac501bea6e75e209ea521 ""
  "/usr/share/texmf/web2c/texmf.cnf" 1520210507 32485 c64754543d8ac501bea6e75e209ea521 ""
  "/var/lib/texmf/fonts/map/pdftex/updmap/pdftex.map" 1553585700 125883 5a8e8cee8831b673b8567a1d9242290b ""
  "/var/lib/texmf/web2c/pdftex/pdflatex.fmt" 1553585702 724918 f0069c923abdff6ea0a22b8f44610845 ""
  "long_integration_proof.aux" 1556785011 8 a94a2480d3289e625eea47cd1b285758 ""
  "long_integration_proof.tex" 1556785008 1374 3c03d9bdfec83e5eeacb4953a039ff24 ""
  (generated)
  "long_integration_proof.pdf"
  "long_integration_proof.aux"
  "long_integration_proof.log"
